cpy a b
dec b
cpy a d

mlt b d a
;cpy 0 a
;cpy b c
;inc a
;dec c
;jnz c -2
;dec d
;jnz d -5

dec b
cpy b c
cpy c d
dec d
inc c
jnz d -2
tgl c
cpy -10 c
jnz 1 c
cpy 78 c
jnz 70 d
inc a
inc d
jnz d -2
inc c
jnz c -5
